…
resample_res <- workflow() |>
  add_formula(y ~ .) |>
  add_model(spec) |>
  fit_resamples(
    resamples = folds,
    metrics = metric_set(rmse, cpm_cor),
    control = resample_ctrl
  )

collect_edges(resample_res, type = "sum")
#> # A tibble: 28 × 4
#>    predictor   pos   neg n_folds
#>    <chr>     <int> <int>   <int>
#>  1 edge_1        3     0       3
#>  2 edge_10       1     1       3
#>  3 edge_11       0     1       3
#>  4 edge_12       2     0       3
#>  5 edge_14       0     3       3
#>  6 edge_15       3     0       3
#>  7 edge_16       0     1       3
#>  8 edge_17       1     0       3
#>  9 edge_19       1     0       3
#> 10 edge_2        0     3       3
#> # ℹ 18 more rows
```
…
collect_metrics(group_res)
#> # A tibble: 2 × 6
#>   .metric .estimator  mean     n std_err .config        
#>   <chr>   <chr>      <dbl> <int>   <dbl> <chr>          
#> 1 cpm_cor standard   0.409     3  0.0446 pre0_mod0_post0
#> 2 rmse    standard   1.37      3  0.114  pre0_mod0_post0
collect_edges(group_res, type = "sum")
#> # A tibble: 26 × 4
#>    predictor   pos   neg n_folds
#>    <chr>     <int> <int>   <int>
#>  1 edge_1        3     0       3
#>  2 edge_10       1     0       3
#>  3 edge_12       2     0       3
#>  4 edge_14       0     1       3
#>  5 edge_15       2     0       3
#>  6 edge_16       0     1       3
#>  7 edge_17       1     0       3
#>  8 edge_2        0     3       3
#>  9 edge_22       3     0       3
#> 10 edge_23       1     0       3
#> # ℹ 16 more rows
```
…
