Leakage-Safe Covariate Handling in CPM • cpmr
…
collect_metrics(resamples_fit)
#> # A tibble: 5 × 5
#>    fold n_assess   both    pos     neg
#>   <int>    <int>  <dbl>  <dbl>   <dbl>
#> 1     1       16  0.273  0.361 -0.195 
#> 2     2       16 -0.219 -0.202 -0.0348
#> 3     3       16  0.330  0.330 NA     
#> 4     4       16  0.502  0.502 NA     
#> 5     5       16  0.182  0.182 NA
collect_predictions(resamples_fit)
#> # A tibble: 80 × 6
#>      row  fold     real    both     pos       neg
#>    <int> <int>    <dbl>   <dbl>   <dbl>     <dbl>
#>  1     1     4 -0.586   -0.137  -0.137   1.65e-17
#>  2     2     4  0.726   -0.0626 -0.0626  1.65e-17
#>  3     3     2  0.478    0.112   0.0806  6.62e- 2
#>  4     4     3  0.426    0.147   0.147  -1.73e-17
#>  5     5     5 -1.53    -0.0774 -0.0774 -1.04e-17
#>  6     6     3  0.500    0.568   0.568  -1.73e-17
#>  7     7     5 -0.272   -0.0547 -0.0547 -1.04e-17
#>  8     8     4 -0.00964 -0.238  -0.238   1.65e-17
#>  9     9     5  0.201    0.0220  0.0220 -1.04e-17
#> 10    10     3  0.556    0.150   0.150  -1.73e-17
#> # ℹ 70 more rows
…
